{
  "swagger": "2.0",
  "info": {
    "title": "APIM-insurancesEvent",
    "description": "Consulta los eventos ocurridos de uso del seguro.",
    "version": "1.0.0"
  },
  "host": "apiinternal.entel.cl",
  "schemes": [
    "https"
  ],
  "paths": {
    "/common/event/v1/insurances": {
      "get": {
        "consumes": [
          "application/json"
        ],
        "description": "\n# 1. Modo de Consumo\n## 1.1 URI\n| Ambiente | API Endpoint                                              | Token Endpoint                      |\n| -------- |:----------------------------------------------------------|:----------------------------------------------------|\n| UAT      |https://apiinternaluat.entel.cl/common/event/v1/insurances | https://apiinternaluat.entel.cl/auth/oauth/v2/token |\n| PRD      |https://apiinternal.entel.cl/common/event/v1/insurances  | https://apiinternal.entel.cl/auth/oauth/v2/token   |\n\n\n# 2. Estructura de entrada (Request)\n## 2.1. Parametros Header\n\n| Campo            | Tipo              | Obligatorio | Descripcion                                                                                                                                                           | Valores posibles - Formato               |\n| -----------------| ------------------| ----------- | --------------------------------------------------------------------------------------------------------------------------------------------------------------------- | -----------------------------------------|\n| Content-Type     | string            | Si          | Indica el tipo de contenido del cuerpo del mensaje enviado al destinatario                                                                                            | application/json; charset=utf-8          |\n| Authorization    | string            | Si          | Token de acceso alfanumerico obtenido de la autenticación OAuth                                                                                                       | Bearer xxxxxxxx-xxxx-xxxx-xxxx-xxxxxxxx  |\n| applicationCode  | string            | Si          | Código único que representa al sistema consumidor. Es responsabilidad del consumidor enviar este valor                                                                | [Posibles valores](https://tdentel.atlassian.net/wiki/download/attachments/565838019/Master%20Headers%20Codes%20eUSB.xlsx?version=3&modificationDate=1531253559009&cacheVersion=1&api=v2)                  |\n| countryCode      | string            | Si          | Identifica el país desde donde se origina la petición. Es responsabilidad del consumidor enviar este valor                                                            | CHL (Chile), PER (Perú)                  |\n| consumerId       | string            | Si          | Código único de identificación de la ejecución, que identifica el evento del consumidor. Es responsabilidad del consumir enviar este valor según las reglas definidas |[Reglas](https://tdentel.atlassian.net/wiki/download/attachments/1151374/Master%20Headers%20Codes%20eUSB.xlsx?api=v2) |\n| requestTimestamp | string (Datetime) | Si          | Fecha, hora y timezone en el cual se envía la petición del consumidor.                                                                                                | YYYY-MM-DDThh:mm:ss.sss-Z                |  \n\n\n\n## 3.2. Estructura Request\n\n | Campo | Tipo | Obligatorio | Descripcion |\n|-------------------------------------|--------|-------------|--------------------------------------------------------------------------------------------------------------------------------------------------------------------------------------------------------------------------------|\n|imei|query|SI|Codigo Imei|\n|idItemOrder|query|NO|ID orden item|\n|startDate|query|NO|Fecha de inicio|\n|endDate|query|NO|fecha de termino|\n# 4. Estructura de salida (Response)\n\n| Campo | Tipo | Descripcion |\n|---------------------------|----------|--------------------------------------------------------------------|\n| result | Object | Objeto con el status   de la llamada  |\n| result.transactionId | String | Id de transacción   generado por el API Management. |\n| result.code | integer | Código interno de   respuesta |\n| result.description | String | Descripción interno   de respuesta |\n| result.descriptionDetail | String | Descripción detallada   o acción a realizar |\n| result.responseTimestamp | dateTime | Fecha y hora de   respuesta del API Management |\n| Result | object |  |\n| Result.Event | object |  |\n| Result.Event.idItemOrder | string |  |\n| Result.Event.insuredImei | string |  |\n| Result.Event.brand | string |  |\n| Result.Event.model | string |  |\n| Result.Event.nroServiceRequest | string | |\n| Result.Event.otNumber | string |  |\n| Result.Event.coverageType | string |  |\n| Result.Event.eventDate | dateTime |  |\n| Result.Event.eventUser | string |  |\n",
        "parameters": [
          {
            "default": "ATG",
            "description": "Código único que representa al sistema consumidor.",
            "in": "header",
            "name": "applicationCode",
            "required": true,
            "type": "string"
          },
          {
            "default": "1234",
            "description": "Código único de identificación de la ejecución, que identifica el evento del consumidor.",
            "in": "header",
            "name": "consumerId",
            "required": true,
            "type": "string"
          },
          {
            "default": "CHL",
            "description": "Identifica el país desde donde se origina la petición.",
            "in": "header",
            "name": "countryCode",
            "required": true,
            "type": "string"
          },
          {
            "default": "2018-12-12T12:12:12.444-03:00",
            "description": "Fecha, hora y timezone en el cual se envía la petición del consumidor.",
            "in": "header",
            "name": "requestTimestamp",
            "required": true,
            "type": "string"
          },
          {
            "default": "",
            "description": "Rellenar cuando tenga informacion",
            "in": "query",
            "name": "imei",
            "required": true,
            "type": "string"
          },
          {
            "default": "",
            "description": "Rellenar cuando tenga informacion",
            "in": "query",
            "name": "idItemOrder",
            "required": false,
            "type": "string"
          },
          {
            "default": "",
            "description": "Rellenar cuando tenga informacion",
            "in": "query",
            "name": "startDate",
            "required": false,
            "type": "string"
          },
          {
            "default": "",
            "description": "Rellenar cuando tenga informacion",
            "in": "query",
            "name": "endDate",
            "required": false,
            "type": "string"
          }
        ],
        "produces": [
          "application/json"
        ],
        "responses": {
          "200": {
            "description": "OK - Operación concluida exitosa",
            "schema": {
              "$ref": "#/definitions/ResponseGetInsuranceEvent"
            }
          },
          "400": {
            "description": "Error - Parámetros invalidos",
            "schema": {
              "$ref": "#/definitions/ResponseError400"
            }
          },
          "401": {
            "description": "Error - Error de autenticación",
            "schema": {
              "$ref": "#/definitions/ResponseError401"
            }
          },
          "404": {
            "description": "Error - Recurso no encontrado.",
            "schema": {
              "$ref": "#/definitions/ResponseError404"
            }
          },
          "405": {
            "description": "Error - Método no permitido",
            "schema": {
              "$ref": "#/definitions/ResponseError405"
            }
          },
          "422": {
            "description": "Error - Error de procesamiento de la solicitud",
            "schema": {
              "$ref": "#/definitions/ResponseError422"
            }
          },
          "429": {
            "description": "Error - Límite de solicitudes excedido",
            "schema": {
              "$ref": "#/definitions/ResponseError429"
            }
          },
          "500": {
            "description": "Error - Error inesperado en el servidor",
            "schema": {
              "$ref": "#/definitions/ResponseError500"
            }
          }
        },
        "summary": "El propósito de este servicio (SASS100335) GetInsuranceEvent Consulta los eventos ocurridos de uso del seguro.",
        "tags": [
          "GetInsuranceEvent"
        ]
      }
    }
  },
  "definitions": {
    "ResponseError400": {
      "properties": {
        "result": {
          "$ref": "#/definitions/ResponseError400_result"
        }
      },
      "type": "object"
    },
    "ResponseError400_result": {
      "properties": {
        "code": {
          "example": "400",
          "type": "string"
        },
        "description": {
          "example": "Solicitud incorrecta",
          "type": "string"
        },
        "descriptionDetail": {
          "example": "La solicitud contiene sintaxis errónea y no debería repetirse.",
          "type": "string"
        },
        "responseTimestamp": {
          "example": "2018/05/10T17:49:56.080",
          "type": "string"
        },
        "transactionId": {
          "example": "0000016349eeab2d-2c9",
          "type": "string"
        }
      }
    },
    "ResponseError401": {
      "properties": {
        "result": {
          "$ref": "#/definitions/ResponseError401_result"
        }
      },
      "type": "object"
    },
    "ResponseError401_result": {
      "properties": {
        "code": {
          "example": "401",
          "type": "string"
        },
        "description": {
          "example": "No autorizado",
          "type": "string"
        },
        "descriptionDetail": {
          "example": "El token de autorización ingresado es inválido.",
          "type": "string"
        },
        "responseTimestamp": {
          "example": "2018/05/10T17:49:56.080",
          "type": "string"
        },
        "transactionId": {
          "example": "0000016349eeab2d-2c9",
          "type": "string"
        }
      }
    },
    "ResponseError404": {
      "properties": {
        "result": {
          "$ref": "#/definitions/ResponseError404_result"
        }
      },
      "type": "object"
    },
    "ResponseError404_result": {
      "properties": {
        "code": {
          "example": "404",
          "type": "string"
        },
        "description": {
          "example": "No encontrado",
          "type": "string"
        },
        "descriptionDetail": {
          "example": "Recurso no encontrado.",
          "type": "string"
        },
        "responseTimestamp": {
          "example": "2018/05/10T17:49:56.080",
          "type": "string"
        },
        "transactionId": {
          "example": "0000016349eeab2d-2c9",
          "type": "string"
        }
      }
    },
    "ResponseError405": {
      "properties": {
        "result": {
          "$ref": "#/definitions/ResponseError405_result"
        }
      },
      "type": "object"
    },
    "ResponseError405_result": {
      "properties": {
        "code": {
          "example": "405",
          "type": "string"
        },
        "description": {
          "example": "Metodo no permitido",
          "type": "string"
        },
        "descriptionDetail": {
          "example": "Una petición fue hecha a una URI utilizando un método de solicitud no soportado por dicha URI.",
          "type": "string"
        },
        "responseTimestamp": {
          "example": "2018/05/10T17:49:56.080",
          "type": "string"
        },
        "transactionId": {
          "example": "0000016349eeab2d-2c9",
          "type": "string"
        }
      }
    },
    "ResponseError422": {
      "properties": {
        "result": {
          "$ref": "#/definitions/ResponseError422_result"
        }
      },
      "type": "object"
    },
    "ResponseError422_result": {
      "properties": {
        "code": {
          "example": "422",
          "type": "string"
        },
        "description": {
          "example": "Entidad no procesada",
          "type": "string"
        },
        "descriptionDetail": {
          "example": "La solicitud está bien formada pero fue imposible seguirla debido a errores semánticos.",
          "type": "string"
        },
        "responseTimestamp": {
          "example": "2018/05/10T17:49:56.080",
          "type": "string"
        },
        "transactionId": {
          "example": "0000016349eeab2d-2c9",
          "type": "string"
        }
      }
    },
    "ResponseError429": {
      "properties": {
        "result": {
          "$ref": "#/definitions/ResponseError429_result"
        }
      },
      "type": "object"
    },
    "ResponseError429_result": {
      "properties": {
        "code": {
          "example": "429",
          "type": "string"
        },
        "description": {
          "example": "Límite de solicitudes excedido",
          "type": "string"
        },
        "descriptionDetail": {
          "example": "Se ha excedido el límite de solicitudes para un período de tiempo determinado.",
          "type": "string"
        },
        "responseTimestamp": {
          "example": "2018/05/10T17:49:56.080",
          "type": "string"
        },
        "transactionId": {
          "example": "0000016349eeab2d-2c9",
          "type": "string"
        }
      }
    },
    "ResponseError500": {
      "properties": {
        "result": {
          "$ref": "#/definitions/ResponseError500_result"
        }
      },
      "type": "object"
    },
    "ResponseError500_result": {
      "properties": {
        "code": {
          "example": "500",
          "type": "string"
        },
        "description": {
          "example": "Error en el servidor",
          "type": "string"
        },
        "descriptionDetail": {
          "example": "El servidor ha encontrado una error inesperado.",
          "type": "string"
        },
        "responseTimestamp": {
          "example": "2018/05/10T17:49:56.080",
          "type": "string"
        },
        "transactionId": {
          "example": "0000016349eeab2d-2c9",
          "type": "string"
        }
      }
    },
    "ResponseGetInsuranceEvent": {
      "type": "object",
      "properties": {
        "result": {
          "type": "object",
          "properties": {
            "transactionId": {
              "type": "string",
              "example": "000001635079ff66-f25b"
            },
            "code": {
              "type": "integer",
              "example": 200
            },
            "description": {
              "type": "string",
              "example": "OK"
            },
            "descriptionDetail": {
              "type": "string",
              "example": "OK"
            },
            "responseTimestamp": {
              "type": "string",
              "format": "dateTime",
              "example": "2019/03/14T10:16:10.484"
            }
          }
        },
        "Result": {
          "type": "object",
          "properties": {
            "Event": {
              "type": "object",
              "properties": {
                "idItemOrder": {
                  "type": "string",
                  "example": "3"
                },
                "insuredImei": {
                  "type": "string",
                  "example": "333"
                },
                "brand": {
                  "type": "string",
                  "example": "APPLE"
                },
                "model": {
                  "type": "string",
                  "example": "IPHONE XS"
                },
                "nroServiceRequest": {
                  "type": "string",
                  "example": "03"
                },
                "otNumber": {
                  "type": "string",
                  "example": "3"
                },
                "coverageType": {
                  "type": "string",
                  "example": "MAXIMA"
                },
                "eventDate": {
                  "type": "string",
                  "format": "datetime",
                  "example": "2018-12-16T00:00:00.000-03:00"
                },
                "eventUser": {
                  "type": "string",
                  "example": "NO"
                }
              }
            }
          }
        }
      }
    }
  }
}