{
  "swagger": "2.0",
  "info": {
    "title": "APIM-partyIdentification-v2",
    "description": "Esta API permite gestionar la información de los clientes que se almacena en sistemas externos.",
    "version": "2.0.0"
  },
  "host": "apiinternal.entel.cl",
  "schemes": [
    "https"
  ],
  "paths": {
    "/party/individualIdentification/v2/partyIdentifications": {
      "get": {
        "consumes": [
          "application/json"
        ],
        "description": "\n# 1. Modo de Consumo\n## 1.1 URI\n| Ambiente | API Endpoint                                              | Token Endpoint                      |\n| -------- |:----------------------------------------------------------|:----------------------------------------------------|\n| UAT      |https://apiinternaluat.entel.cl/party/individualIdentification/v2/partyIdentifications | https://apiinternaluat.entel.cl/auth/oauth/v2/token |\n| PRD      |https://apiinternal.entel.cl/party/individualIdentification/v2/partyIdentifications  | https://apiinternal.entel.cl/auth/oauth/v2/token   |\n\n\n# 2. Estructura de entrada (Request)\n## 2.1. Parametros Header\n\n| Campo            | Tipo              | Obligatorio | Descripcion                                                                                                                                                           | Valores posibles - Formato               |\n| -----------------| ------------------| ----------- | --------------------------------------------------------------------------------------------------------------------------------------------------------------------- | -----------------------------------------|\n| Content-Type     | string            | Si          | Indica el tipo de contenido del cuerpo del mensaje enviado al destinatario                                                                                            | application/json; charset=utf-8          |\n| Authorization    | string            | Si          | Token de acceso alfanumerico obtenido de la autenticación OAuth                                                                                                       | Bearer xxxxxxxx-xxxx-xxxx-xxxx-xxxxxxxx  |\n| applicationCode  | string            | Si          | Código único que representa al sistema consumidor. Es responsabilidad del consumidor enviar este valor                                                                | [Posibles valores](https://tdentel.atlassian.net/wiki/download/attachments/565838019/Master%20Headers%20Codes%20eUSB.xlsx?version=3&modificationDate=1531253559009&cacheVersion=1&api=v2)                  |\n| countryCode      | string            | Si          | Identifica el país desde donde se origina la petición. Es responsabilidad del consumidor enviar este valor                                                            | CHL (Chile), PER (Perú)                  |\n| consumerId       | string            | Si          | Código único de identificación de la ejecución, que identifica el evento del consumidor. Es responsabilidad del consumir enviar este valor según las reglas definidas |[Reglas](https://tdentel.atlassian.net/wiki/download/attachments/1151374/Master%20Headers%20Codes%20eUSB.xlsx?api=v2) |\n| requestTimestamp | string (Datetime) | Si          | Fecha, hora y timezone en el cual se envía la petición del consumidor.                                                                                                | YYYY-MM-DDThh:mm:ss.sss-Z                |  \n\n\n\n## 3.2. Estructura Request Body\n\n | Campo | Tipo | Obligatorio | Descripcion |\n|-------------------------------------|--------|-------------|--------------------------------------------------------------------------------------------------------------------------------------------------------------------------------------------------------------------------------|\n|number|query|SI|Rut, sin puntos, con guíon y dígito verificador o sin guíon|\n|serialNumber|query|SI|'Nro. de Serie Cédula nueva : X999999999, si es Cédula antigua:0,Si se deja en blancos, no se valida el estado de la Cédula de identidad'|\n  \n# 4. Estructura de salida (Response)\n\n| Campo | Tipo | Descripcion |\n|---------------------------|----------|--------------------------------------------------------------------|\n| result | Object | Objeto con el status   de la llamada  |\n| result.transactionId | String | Id de transacción   generado por el API Management. |\n| result.code | integer | Código interno de   respuesta |\n| result.description | String | Descripción interno   de respuesta |\n| result.descriptionDetail | String | Descripción detallada   o acción a realizar |\n| result.responseTimestamp | dateTime | Fecha y hora de   respuesta del API Management |\n| IndividualIdentification |object||\n| IndividualIdentification.number |string|Rut de la persona|\n| IndividualIdentification.serialNumber |string|Numero de serie|\n| IndividualIdentification.documentType |string|Tipo de documento|\n| IndividualIdentification.documentStatus |string|Estado del documento|\n| IndividualIdentification.blockType |string|Tipo de documento|\n| IndividualIdentification.expiryDate |string|Fecha de Vencimiento|\n| IndividualIdentification.contingency|boolean|Contingencia|\n| IndividualIdentification.Individual |object||\n| IndividualIdentification.Individual.firstName |string|Nombres|\n| IndividualIdentification.Individual.lastName |string|Apellido Paterno|\n| IndividualIdentification.Individual.MaindenName |string|Apellido Materno|\n| IndividualIdentification.Individual.deceased |string|Difunto|\n| IndividualIdentification.Individual.deceasementDate |string|Fecha de Difunción|\n| IndividualIdentification.Individual.age |string|Edad|\n| IndividualIdentification.Individual.birthDate |string|Fecha de nacimiento|\n| IndividualIdentification.Individual.nationality |string|Nacionalidad|\n| IndividualIdentification.Individual.maritalStatusCode |string|Codigo Estado Civil|\n| IndividualIdentification.Individual.maritalStatus |string|Estado civil|\n| IndividualIdentification.Individual.marrigeDate |dateTime|Fecha de Matrimonio|\n| IndividualIdentification.Individual.gender |string|Genero (Sexo)|\n| IndividualIdentification.Individual.SEG |string|Segmento socioeconomico|\n| IndividualIdentification.Individual.fatherName |string|Nombre del padre|\n| IndividualIdentification.Individual.motherName |string|Nombre de la madre|\n| IndividualIdentification.Individual.job |String|Profesion|\n| IndividualIdentification.Contact |Object||\n| IndividualIdentification.Contact.Address |Object||\n| IndividualIdentification.Contact.Address.date |string|Fecha|\n| IndividualIdentification.Contact.Address.addressName |string|Direccion|\n| IndividualIdentification.Contact.Address.comune |string|Comuna|\n| IndividualIdentification.Contact.Address.city |string|Ciudad|\n| IndividualIdentification.Contact.Address.region |string|region|\n| IndividualIdentification.Contact.Address.addressType |string|?|\n| IndividualIdentification.Contact.PhoneNumber |Object||\n| IndividualIdentification.Contact.PhoneNumber.number |string|numero|\n| IndividualIdentification.Contact.PhoneNumber.type |string|tipo|\n",
        "parameters": [
          {
            "default": "ATG",
            "description": "Código único que representa al sistema consumidor.",
            "in": "header",
            "name": "applicationCode",
            "required": true,
            "type": "string"
          },
          {
            "default": "1234",
            "description": "Código único de identificación de la ejecución, que identifica el evento del consumidor.",
            "in": "header",
            "name": "consumerId",
            "required": true,
            "type": "string"
          },
          {
            "default": "CHL",
            "description": "Identifica el país desde donde se origina la petición.",
            "in": "header",
            "name": "countryCode",
            "required": true,
            "type": "string"
          },
          {
            "default": "2018-12-12T12:12:12.444-03:00",
            "description": "Fecha, hora y timezone en el cual se envía la petición del consumidor.",
            "in": "header",
            "name": "requestTimestamp",
            "required": true,
            "type": "string"
          },
          {
            "default": "",
            "description": "Rut de la persona",
            "in": "query",
            "name": "number",
            "required": true,
            "type": "string"
          },
          {
            "default": "",
            "description": "Numero de serie o numero de documento de cedula de identidad",
            "in": "query",
            "name": "serialNumner",
            "required": true,
            "type": "string"
          }
        ],
        "produces": [
          "application/json"
        ],
        "responses": {
          "200": {
            "description": "OK - Operación concluida exitosa",
            "schema": {
              "$ref": "#/definitions/ResponseGetPartyIdentifications"
            }
          },
          "400": {
            "description": "Error - Parámetros invalidos",
            "schema": {
              "$ref": "#/definitions/ResponseError400"
            }
          },
          "401": {
            "description": "Error - Error de autenticación",
            "schema": {
              "$ref": "#/definitions/ResponseError401"
            }
          },
          "404": {
            "description": "Error - Recurso no encontrado.",
            "schema": {
              "$ref": "#/definitions/ResponseError404"
            }
          },
          "405": {
            "description": "Error - Método no permitido",
            "schema": {
              "$ref": "#/definitions/ResponseError405"
            }
          },
          "422": {
            "description": "Error - Error de procesamiento de la solicitud",
            "schema": {
              "$ref": "#/definitions/ResponseError422"
            }
          },
          "429": {
            "description": "Error - Límite de solicitudes excedido",
            "schema": {
              "$ref": "#/definitions/ResponseError429"
            }
          },
          "500": {
            "description": "Error - Error inesperado en el servidor",
            "schema": {
              "$ref": "#/definitions/ResponseError500"
            }
          }
        },
        "summary": "Obtener información de los clientes desde sistemas externos (Transunion y en caso de error técnico de EQUIFAX)",
        "tags": [
          "PartyIdentifications"
        ]
      }
    },
    "/party/individualIdentification/v2/partyIdentifications/quiz": {
      "get": {
        "consumes": [
          "application/json"
        ],
        "description": "\n# 1. Modo de Consumo\n## 1.1 URI\n| Ambiente | API Endpoint                                              | Token Endpoint                      |\n| -------- |:----------------------------------------------------------|:----------------------------------------------------|\n| UAT      |https://apiinternaluat.entel.cl/party/individualIdentification/v2/partyIdentifications/quiz | https://apiinternaluat.entel.cl/auth/oauth/v2/token |\n| PRD      |https://apiinternal.entel.cl/party/individualIdentification/v2/partyIdentifications/quiz  | https://apiinternal.entel.cl/auth/oauth/v2/token   |\n\n\n# 2. Estructura de entrada (Request)\n## 2.1. Parametros Header\n\n| Campo            | Tipo              | Obligatorio | Descripcion                                                                                                                                                           | Valores posibles - Formato               |\n| -----------------| ------------------| ----------- | --------------------------------------------------------------------------------------------------------------------------------------------------------------------- | -----------------------------------------|\n| Content-Type     | string            | Si          | Indica el tipo de contenido del cuerpo del mensaje enviado al destinatario                                                                                            | application/json; charset=utf-8          |\n| Authorization    | string            | Si          | Token de acceso alfanumerico obtenido de la autenticación OAuth                                                                                                       | Bearer xxxxxxxx-xxxx-xxxx-xxxx-xxxxxxxx  |\n| applicationCode  | string            | Si          | Código único que representa al sistema consumidor. Es responsabilidad del consumidor enviar este valor                                                                | [Posibles valores](https://tdentel.atlassian.net/wiki/download/attachments/565838019/Master%20Headers%20Codes%20eUSB.xlsx?version=3&modificationDate=1531253559009&cacheVersion=1&api=v2)                  |\n| countryCode      | string            | Si          | Identifica el país desde donde se origina la petición. Es responsabilidad del consumidor enviar este valor                                                            | CHL (Chile), PER (Perú)                  |\n| consumerId       | string            | Si          | Código único de identificación de la ejecución, que identifica el evento del consumidor. Es responsabilidad del consumir enviar este valor según las reglas definidas |[Reglas](https://tdentel.atlassian.net/wiki/download/attachments/1151374/Master%20Headers%20Codes%20eUSB.xlsx?api=v2) |\n| requestTimestamp | string (Datetime) | Si          | Fecha, hora y timezone en el cual se envía la petición del consumidor.                                                                                                | YYYY-MM-DDThh:mm:ss.sss-Z                |  \n\n\n\n## 3.2. Estructura Request Body\n\n | Campo | Tipo | Obligatorio | Descripcion |\n|-------------------------------------|--------|-------------|--------------------------------------------------------------------------------------------------------------------------------------------------------------------------------------------------------------------------------|\n|type|query|SI|  Tipo de identificacion (Rut, Pasaporte)|\n|number|query|SI|Rut, sin puntos, con guíon y dígito verificador o sin guíon|\n|serialNumber|query|SI|'Nro. de Serie Cédula nueva : X999999999, si es Cédula antigua:0,Si se deja en blancos, no se valida el estado de la Cédula de identidad'|\n  \n# 4. Estructura de salida (Response)\n\n| Campo | Tipo | Descripcion |\n|---------------------------|----------|--------------------------------------------------------------------|\n| result | Object | Objeto con el status   de la llamada  |\n| result.transactionId | String | Id de transacción   generado por el API Management. |\n| result.code | integer | Código interno de   respuesta |\n| result.description | String | Descripción interno   de respuesta |\n| result.descriptionDetail | String | Descripción detallada   o acción a realizar |\n| result.responseTimestamp | dateTime | Fecha y hora de   respuesta del API Management |\n| Requester |object||\n| Requester.language |string|es-GT  |\n| Requester.ServiceRequest |object||\n| Requester.ServiceRequest.chanelln |string|TRS|\n| Requester.Association |object||\n| Requester.Association.ID |string|37276|\n| Requester.QuestionaryAndAnswer |object||\n| Requester.QuestionaryAndAnswer.ID |string|25768|\n| Requester.QuestionaryAndAnswer.title |string||\n| Requester.QuestionaryAndAnswer.questionarySize |string|5|\n| Requester.QuestionaryAndAnswer.Questionary |object||\n| Requester.QuestionaryAndAnswer.Questionary.ID |string|  c075457b-0111-4|\n| Requester.QuestionaryAndAnswer.Questionary.questionName |object|Q001 - Â¿De los siguientes telÃ©fonos, cuÃ¡l no conoce o no estÃ¡ relacionado con usted?  |\n| Requester.Answer |object||\n| Requester.Answer.ID |string||\n| Requester.Answer.description |string||\n| Requester.Answer.value |string|2-22146458|\n| Requester.Answer.isCorrect |boolean|false|\n",
        "parameters": [
          {
            "default": "ATG",
            "description": "Código único que representa al sistema consumidor.",
            "in": "header",
            "name": "applicationCode",
            "required": true,
            "type": "string"
          },
          {
            "default": "1234",
            "description": "Código único de identificación de la ejecución, que identifica el evento del consumidor.",
            "in": "header",
            "name": "consumerId",
            "required": true,
            "type": "string"
          },
          {
            "default": "CHL",
            "description": "Identifica el país desde donde se origina la petición.",
            "in": "header",
            "name": "countryCode",
            "required": true,
            "type": "string"
          },
          {
            "default": "2018-12-12T12:12:12.444-03:00",
            "description": "Fecha, hora y timezone en el cual se envía la petición del consumidor.",
            "in": "header",
            "name": "requestTimestamp",
            "required": true,
            "type": "string"
          },
          {
            "default": "",
            "description": "Rut de la persona",
            "in": "query",
            "name": "number",
            "required": true,
            "type": "string"
          },
          {
            "default": "",
            "description": "Tipo de documento",
            "in": "query",
            "name": "type",
            "required": true,
            "type": "string"
          },
          {
            "default": "",
            "description": "Numero de serie o numero de documento de cedula de identidad",
            "in": "query",
            "name": "serialNumner",
            "required": true,
            "type": "string"
          }
        ],
        "produces": [
          "application/json"
        ],
        "responses": {
          "200": {
            "description": "OK - Operación concluida exitosa",
            "schema": {
              "$ref": "#/definitions/ResponseGetPartyIdentificationsQuiz"
            }
          },
          "400": {
            "description": "Error - Parámetros invalidos",
            "schema": {
              "$ref": "#/definitions/ResponseError400"
            }
          },
          "401": {
            "description": "Error - Error de autenticación",
            "schema": {
              "$ref": "#/definitions/ResponseError401"
            }
          },
          "404": {
            "description": "Error - Recurso no encontrado.",
            "schema": {
              "$ref": "#/definitions/ResponseError404"
            }
          },
          "405": {
            "description": "Error - Método no permitido",
            "schema": {
              "$ref": "#/definitions/ResponseError405"
            }
          },
          "422": {
            "description": "Error - Error de procesamiento de la solicitud",
            "schema": {
              "$ref": "#/definitions/ResponseError422"
            }
          },
          "429": {
            "description": "Error - Límite de solicitudes excedido",
            "schema": {
              "$ref": "#/definitions/ResponseError429"
            }
          },
          "500": {
            "description": "Error - Error inesperado en el servidor",
            "schema": {
              "$ref": "#/definitions/ResponseError500"
            }
          }
        },
        "summary": "Consultar los cuestionarios para la identificación de un cliente.",
        "tags": [
          "PartyIdentifications"
        ]
      }
    },
    "/party/individualIdentification/v2/partyIdentifications/quiz/submit": {
      "post": {
        "consumes": [
          "application/json"
        ],
        "description": "\n# 1. Modo de Consumo\n## 1.1 URI\n| Ambiente | API Endpoint                                              | Token Endpoint                      |\n| -------- |:----------------------------------------------------------|:----------------------------------------------------|\n| UAT      |https://apiinternaluat.entel.cl/party/individualIdentification/v2/partyIdentifications/quiz/submit | https://apiinternaluat.entel.cl/auth/oauth/v2/token |\n| PRD      |https://apiinternal.entel.cl/party/individualIdentification/v2/partyIdentifications/quiz/submit | https://apiinternal.entel.cl/auth/oauth/v2/token   |\n\n\n# 2. Estructura de entrada (Request)\n## 2.1. Parametros Header\n\n| Campo            | Tipo              | Obligatorio | Descripcion                                                                                                                                                           | Valores posibles - Formato               |\n| -----------------| ------------------| ----------- | --------------------------------------------------------------------------------------------------------------------------------------------------------------------- | -----------------------------------------|\n| Content-Type     | string            | Si          | Indica el tipo de contenido del cuerpo del mensaje enviado al destinatario                                                                                            | application/json; charset=utf-8          |\n| Authorization    | string            | Si          | Token de acceso alfanumerico obtenido de la autenticación OAuth                                                                                                       | Bearer xxxxxxxx-xxxx-xxxx-xxxx-xxxxxxxx  |\n| applicationCode  | string            | Si          | Código único que representa al sistema consumidor. Es responsabilidad del consumidor enviar este valor                                                                | [Posibles valores](https://tdentel.atlassian.net/wiki/download/attachments/565838019/Master%20Headers%20Codes%20eUSB.xlsx?version=3&modificationDate=1531253559009&cacheVersion=1&api=v2)                  |\n| countryCode      | string            | Si          | Identifica el país desde donde se origina la petición. Es responsabilidad del consumidor enviar este valor                                                            | CHL (Chile), PER (Perú)                  |\n| consumerId       | string            | Si          | Código único de identificación de la ejecución, que identifica el evento del consumidor. Es responsabilidad del consumir enviar este valor según las reglas definidas |[Reglas](https://tdentel.atlassian.net/wiki/download/attachments/1151374/Master%20Headers%20Codes%20eUSB.xlsx?api=v2) |\n| requestTimestamp | string (Datetime) | Si          | Fecha, hora y timezone en el cual se envía la petición del consumidor.                                                                                                | YYYY-MM-DDThh:mm:ss.sss-Z                |  \n\n\n\n## 3.2. Estructura Request Body\n\n | Campo | Tipo | Obligatorio | Descripcion |\n|-------------------------------------|--------|-------------|--------------------------------------------------------------------------------------------------------------------------------------------------------------------------------------------------------------------------------|\n|Requester|object|SI||\n|Requester.language|string|NO||\n|Requester.ServiceRequest|object|SI||\n|Requester.ServiceRequest.channeln|string|SI|Canal responsable de la publicacion y resolucion del cuestionario|\n|Requester.Association|object|SI||\n|Requester.Association.ID|string|SI|Identficador de correlacion entre peticion y respuesta de cuestionario|\n|Requester.QuestionaryAndAnswer|object|SI||\n|Requester.QuestionaryAndAnswer.ID|string|SI|Identificador de Cuestinario|\n|Requester.QuestionaryAndAnswer.title|string|SI|Titulo de cuestionario|\n|Requester.QuestionaryAndAnswer.questionarySize|string|NO|Cantidad de preguntas del cuestionario|\n|Requester.QuestionaryAndAnswer.Questionary|object|SI||\n|Requester.QuestionaryAndAnswer.Questionary.ID|string|SI|Identificador de pregunta|\n|Requester.QuestionaryAndAnswer.Questionary.questionName|string|NO|Pregunta|\n|Requester.QuestionaryAndAnswer.Questionary.Answer|object|SI||\n|Requester.QuestionaryAndAnswer.Questionary.Answer.ID|string|NO|ID de Respuesta|\n|Requester.QuestionaryAndAnswer.Questionary.Answer.Value|string|SI|Valor de respuesta|\n|Requester.QuestionaryAndAnswer.Questionary.Answer.isCorrect|string|NO|Indicador de respuesta correcta|\n|Requester.QuestionaryAndAnswer.Questionary.Answer.isSelectedboolean|string|SI|Indicador de respuesta selccionada|\n|Requester.IndividualIdentification|object|SI||\n|Requester.IndividualIdentification.number|string|SI|?|\n|Requester.IndividualIdentification.serialNumber|string|SI|?|\n\n# 4. Estructura de salida (Response)\n\n| Campo | Tipo | Descripcion |\n|---------------------------|----------|--------------------------------------------------------------------|\n| result | Object | Objeto con el status   de la llamada  |\n| result.transactionId | String | Id de transacción   generado por el API Management. |\n| result.code | integer | Código interno de   respuesta |\n| result.description | String | Descripción interno   de respuesta |\n| result.descriptionDetail | String | Descripción detallada   o acción a realizar |\n| result.responseTimestamp | dateTime | Fecha y hora de   respuesta del API Management |\n| Requester |object||\n| Requester.QuestionaryAndAnswer |object||\n| Requester.QuestionaryAndAnswer.resultDescription |string|Descripcion de resultado  |\n| Requester.QuestionaryAndAnswer.validateInd |boolean|Indicador de respuesta de cuestinario  |\n",
        "parameters": [
          {
            "default": "ATG",
            "description": "Código único que representa al sistema consumidor.",
            "in": "header",
            "name": "applicationCode",
            "required": true,
            "type": "string"
          },
          {
            "default": "1234",
            "description": "Código único de identificación de la ejecución, que identifica el evento del consumidor.",
            "in": "header",
            "name": "consumerId",
            "required": true,
            "type": "string"
          },
          {
            "default": "CHL",
            "description": "Identifica el país desde donde se origina la petición.",
            "in": "header",
            "name": "countryCode",
            "required": true,
            "type": "string"
          },
          {
            "default": "2018-12-12T12:12:12.444-03:00",
            "description": "Fecha, hora y timezone en el cual se envía la petición del consumidor.",
            "in": "header",
            "name": "requestTimestamp",
            "required": true,
            "type": "string"
          },
          {
            "default": "",
            "description": "Rut de la persona",
            "in": "query",
            "name": "number",
            "required": true,
            "type": "string"
          },
          {
            "default": "",
            "description": "Numero de serie o numero de documento de cedula de identidad",
            "in": "query",
            "name": "serialNumner",
            "required": true,
            "type": "string"
          },
          {
            "description": "Estructura request a envíar.",
            "in": "body",
            "name": "body",
            "required": true,
            "schema": {
              "$ref": "#/definitions/RequestPostPartyIdentificationsQuizSubmit"
            }
          }
        ],
        "produces": [
          "application/json"
        ],
        "responses": {
          "200": {
            "description": "OK - Operación concluida exitosa",
            "schema": {
              "$ref": "#/definitions/ResponsePostPartyIdentificationsQuizSubmit"
            }
          },
          "400": {
            "description": "Error - Parámetros invalidos",
            "schema": {
              "$ref": "#/definitions/ResponseError400"
            }
          },
          "401": {
            "description": "Error - Error de autenticación",
            "schema": {
              "$ref": "#/definitions/ResponseError401"
            }
          },
          "404": {
            "description": "Error - Recurso no encontrado.",
            "schema": {
              "$ref": "#/definitions/ResponseError404"
            }
          },
          "405": {
            "description": "Error - Método no permitido",
            "schema": {
              "$ref": "#/definitions/ResponseError405"
            }
          },
          "422": {
            "description": "Error - Error de procesamiento de la solicitud",
            "schema": {
              "$ref": "#/definitions/ResponseError422"
            }
          },
          "429": {
            "description": "Error - Límite de solicitudes excedido",
            "schema": {
              "$ref": "#/definitions/ResponseError429"
            }
          },
          "500": {
            "description": "Error - Error inesperado en el servidor",
            "schema": {
              "$ref": "#/definitions/ResponseError500"
            }
          }
        },
        "summary": "Confirmar las respuestas del cliente, en caso de que el proveedor transunión nos de un error técnico, se tomarán los datos de Equifax.",
        "tags": [
          "PartyIdentifications"
        ]
      }
    }
  },
  "definitions": {
    "ResponseError400": {
      "properties": {
        "result": {
          "$ref": "#/definitions/ResponseError400_result"
        }
      },
      "type": "object"
    },
    "ResponseError400_result": {
      "properties": {
        "code": {
          "example": "400",
          "type": "string"
        },
        "description": {
          "example": "Solicitud incorrecta",
          "type": "string"
        },
        "descriptionDetail": {
          "example": "La solicitud contiene sintaxis errónea y no debería repetirse.",
          "type": "string"
        },
        "responseTimestamp": {
          "example": "2018/05/10T17:49:56.080",
          "type": "string"
        },
        "transactionId": {
          "example": "0000016349eeab2d-2c9",
          "type": "string"
        }
      }
    },
    "ResponseError401": {
      "properties": {
        "result": {
          "$ref": "#/definitions/ResponseError401_result"
        }
      },
      "type": "object"
    },
    "ResponseError401_result": {
      "properties": {
        "code": {
          "example": "401",
          "type": "string"
        },
        "description": {
          "example": "No autorizado",
          "type": "string"
        },
        "descriptionDetail": {
          "example": "El token de autorización ingresado es inválido.",
          "type": "string"
        },
        "responseTimestamp": {
          "example": "2018/05/10T17:49:56.080",
          "type": "string"
        },
        "transactionId": {
          "example": "0000016349eeab2d-2c9",
          "type": "string"
        }
      }
    },
    "ResponseError404": {
      "properties": {
        "result": {
          "$ref": "#/definitions/ResponseError404_result"
        }
      },
      "type": "object"
    },
    "ResponseError404_result": {
      "properties": {
        "code": {
          "example": "404",
          "type": "string"
        },
        "description": {
          "example": "No encontrado",
          "type": "string"
        },
        "descriptionDetail": {
          "example": "Recurso no encontrado.",
          "type": "string"
        },
        "responseTimestamp": {
          "example": "2018/05/10T17:49:56.080",
          "type": "string"
        },
        "transactionId": {
          "example": "0000016349eeab2d-2c9",
          "type": "string"
        }
      }
    },
    "ResponseError405": {
      "properties": {
        "result": {
          "$ref": "#/definitions/ResponseError405_result"
        }
      },
      "type": "object"
    },
    "ResponseError405_result": {
      "properties": {
        "code": {
          "example": "405",
          "type": "string"
        },
        "description": {
          "example": "Metodo no permitido",
          "type": "string"
        },
        "descriptionDetail": {
          "example": "Una petición fue hecha a una URI utilizando un método de solicitud no soportado por dicha URI.",
          "type": "string"
        },
        "responseTimestamp": {
          "example": "2018/05/10T17:49:56.080",
          "type": "string"
        },
        "transactionId": {
          "example": "0000016349eeab2d-2c9",
          "type": "string"
        }
      }
    },
    "ResponseError422": {
      "properties": {
        "result": {
          "$ref": "#/definitions/ResponseError422_result"
        }
      },
      "type": "object"
    },
    "ResponseError422_result": {
      "properties": {
        "code": {
          "example": "422",
          "type": "string"
        },
        "description": {
          "example": "Entidad no procesada",
          "type": "string"
        },
        "descriptionDetail": {
          "example": "La solicitud está bien formada pero fue imposible seguirla debido a errores semánticos.",
          "type": "string"
        },
        "responseTimestamp": {
          "example": "2018/05/10T17:49:56.080",
          "type": "string"
        },
        "transactionId": {
          "example": "0000016349eeab2d-2c9",
          "type": "string"
        }
      }
    },
    "ResponseError429": {
      "properties": {
        "result": {
          "$ref": "#/definitions/ResponseError429_result"
        }
      },
      "type": "object"
    },
    "ResponseError429_result": {
      "properties": {
        "code": {
          "example": "429",
          "type": "string"
        },
        "description": {
          "example": "Límite de solicitudes excedido",
          "type": "string"
        },
        "descriptionDetail": {
          "example": "Se ha excedido el límite de solicitudes para un período de tiempo determinado.",
          "type": "string"
        },
        "responseTimestamp": {
          "example": "2018/05/10T17:49:56.080",
          "type": "string"
        },
        "transactionId": {
          "example": "0000016349eeab2d-2c9",
          "type": "string"
        }
      }
    },
    "ResponseError500": {
      "properties": {
        "result": {
          "$ref": "#/definitions/ResponseError500_result"
        }
      },
      "type": "object"
    },
    "ResponseError500_result": {
      "properties": {
        "code": {
          "example": "500",
          "type": "string"
        },
        "description": {
          "example": "Error en el servidor",
          "type": "string"
        },
        "descriptionDetail": {
          "example": "El servidor ha encontrado una error inesperado.",
          "type": "string"
        },
        "responseTimestamp": {
          "example": "2018/05/10T17:49:56.080",
          "type": "string"
        },
        "transactionId": {
          "example": "0000016349eeab2d-2c9",
          "type": "string"
        }
      }
    },
    "ResponseGetPartyIdentifications": {
      "type": "object",
      "properties": {
        "result": {
          "type": "object",
          "properties": {
            "transactionId": {
              "type": "string",
              "example": "000001635079ff66-f25b"
            },
            "code": {
              "type": "integer",
              "example": 200
            },
            "description": {
              "type": "string",
              "example": "OK"
            },
            "descriptionDetail": {
              "type": "string",
              "example": "OK"
            },
            "responseTimestamp": {
              "type": "string",
              "format": "dateTime",
              "example": "2019/03/14T10:16:10.484"
            }
          }
        },
        "IndividualIdentification": {
          "type": "object",
          "properties": {
            "number": {
              "type": "string",
              "example": "17594992-5"
            },
            "serialNumber": {
              "type": "string",
              "example": "106567153"
            },
            "documentType": {
              "type": "string",
              "example": "Cedula"
            },
            "documentStatus": {
              "type": "string",
              "example": "VIGENTE"
            },
            "blockType": {
              "type": "string",
              "example": "TEMPORAL"
            },
            "expiryDate": {
              "type": "string",
              "format": "datetime",
              "example": "2020-12-12T00:00:00Z"
            },
            "contingency": {
              "type": "boolean",
              "example": true
            },
            "Individual": {
              "type": "object",
              "properties": {
                "firstName": {
                  "type": "string",
                  "example": "Guadalupe"
                },
                "lastName": {
                  "type": "string",
                  "example": "Valenzuela"
                },
                "MaindenName": {
                  "type": "string",
                  "example": "Soto"
                },
                "deceased": {
                  "type": "boolean",
                  "example": false
                },
                "deceasementDate": {
                  "type": "string",
                  "example": ""
                },
                "age": {
                  "type": "string",
                  "example": "29"
                },
                "birthDate": {
                  "type": "string",
                  "format": "dateTime",
                  "example": "1991-10-01T00:00:00Z"
                },
                "nationality": {
                  "type": "string",
                  "example": "Chileno"
                },
                "maritalStatusCode": {
                  "type": "string",
                  "example": "S1"
                },
                "maritalStatus": {
                  "type": "string",
                  "example": "Soltero"
                },
                "marriageDate": {
                  "type": "string",
                  "format": "dateTime",
                  "example": ""
                },
                "gender": {
                  "type": "string",
                  "example": "FEMENINO"
                },
                "SEG": {
                  "type": "string",
                  "example": "3"
                },
                "fathername": {
                  "type": "string",
                  "example": "?"
                },
                "mothername": {
                  "type": "string",
                  "example": "?"
                },
                "job": {
                  "type": "string",
                  "example": "Secretaria"
                }
              }
            },
            "Contact": {
              "type": "object",
              "properties": {
                "Address": {
                  "type": "object",
                  "properties": {
                    "date": {
                      "type": "string",
                      "example": "?"
                    },
                    "addressName": {
                      "type": "string",
                      "example": "?"
                    },
                    "comune": {
                      "type": "string",
                      "example": "?"
                    },
                    "city": {
                      "type": "string",
                      "example": "?"
                    },
                    "region": {
                      "type": "string",
                      "example": "?"
                    },
                    "addressType": {
                      "type": "string",
                      "example": "?"
                    }
                  }
                }
              }
            },
            "PhoneNumber": {
              "type": "object",
              "properties": {
                "number": {
                  "type": "string",
                  "example": "11221144"
                },
                "type": {
                  "type": "string",
                  "example": "FIJO"
                }
              }
            }
          }
        }
      }
    },
    "ResponseGetPartyIdentificationsQuiz": {
      "type": "object",
      "properties": {
        "result": {
          "type": "object",
          "properties": {
            "transactionId": {
              "type": "string",
              "example": "000001635079ff66-f25b"
            },
            "code": {
              "type": "integer",
              "example": 200
            },
            "description": {
              "type": "string",
              "example": "OK"
            },
            "descriptionDetail": {
              "type": "string",
              "example": "OK"
            },
            "responseTimestamp": {
              "type": "string",
              "format": "dateTime",
              "example": "2019/03/14T10:16:10.484"
            }
          }
        },
        "Requester": {
          "type": "object",
          "properties": {
            "language": {
              "type": "string",
              "example": "es-GT"
            },
            "ServiceRequest": {
              "type": "object",
              "properties": {
                "chanelln": {
                  "type": "string",
                  "example": "TRS"
                }
              }
            },
            "Association": {
              "type": "object",
              "properties": {
                "ID": {
                  "type": "string",
                  "example": 37276
                }
              }
            },
            "QuestionaryAndAnswer": {
              "type": "object",
              "properties": {
                "ID": {
                  "type": "string",
                  "example": 25768
                },
                "title": {
                  "type": "string",
                  "example": ""
                },
                "questionarySize": {
                  "type": "string",
                  "example": 5
                },
                "Questionary": {
                  "type": "object",
                  "properties": {
                    "id": {
                      "type": "string",
                      "example": "c075457b-0111-4"
                    },
                    "questionName": {
                      "type": "string",
                      "example": "Q001 - ¿De los siguientes telefonos, cual no conoce o no esta relacionado con usted?"
                    },
                    "Answer": {
                      "type": "object",
                      "properties": {
                        "ID": {
                          "type": "string",
                          "example": ""
                        },
                        "description": {
                          "type": "string",
                          "example": ""
                        },
                        "value": {
                          "type": "string",
                          "example": "2-22146458"
                        },
                        "isCorrect": {
                          "type": "boolean",
                          "example": false
                        }
                      }
                    }
                  }
                }
              }
            }
          }
        }
      }
    },
    "RequestPostPartyIdentificationsQuizSubmit": {
      "type": "object",
      "properties": {
        "languaje": {
          "type": "string",
          "example": "es-GT"
        },
        "ServiceRequest": {
          "type": "object",
          "properties": {
            "channeln": {
              "type": "string",
              "example": "TRS"
            }
          }
        },
        "Association": {
          "type": "object",
          "properties": {
            "ID": {
              "type": "string",
              "example": "1111111111"
            }
          }
        },
        "QuestionaryAndAnswer": {
          "type": "object",
          "properties": {
            "ID": {
              "type": "string",
              "example": "25768"
            },
            "title": {
              "type": "string",
              "example": "Para validar la identidad de ~MARIA CIFUENTES~, por favor responda las siguientes preguntas. [Examen:37276]"
            },
            "questionarySize": {
              "type": "string",
              "example": "5"
            },
            "Questionary": {
              "type": "object",
              "properties": {
                "ID": {
                  "type": "string",
                  "example": "c075457b-0111-44b3-ac0d-52226dd7be93"
                },
                "questionName": {
                  "type": "string",
                  "example": "Q001 - ¿De los siguientes telefonos, cual no conoce o no esta relacionado con usted?"
                },
                "Answer": {
                  "type": "object",
                  "properties": {
                    "ID": {
                      "type": "string",
                      "example": ""
                    },
                    "Value": {
                      "type": "string",
                      "example": "2-22146458"
                    },
                    "IsCorrect": {
                      "type": "boolean",
                      "example": "false"
                    },
                    "IsSelected": {
                      "type": "boolean",
                      "example": "false"
                    }
                  }
                }
              }
            }
          }
        },
        "IndividualIdentification": {
          "type": "object",
          "properties": {
            "number": {
              "type": "string",
              "example": "?"
            },
            "serialNumber": {
              "type": "string",
              "example": "?"
            }
          }
        }
      }
    },
    "ResponsePostPartyIdentificationsQuizSubmit": {
      "type": "object",
      "properties": {
        "result": {
          "type": "object",
          "properties": {
            "transactionId": {
              "type": "string",
              "example": "000001635079ff66-f25b"
            },
            "code": {
              "type": "integer",
              "example": 200
            },
            "description": {
              "type": "string",
              "example": "OK"
            },
            "descriptionDetail": {
              "type": "string",
              "example": "OK"
            },
            "responseTimestamp": {
              "type": "string",
              "format": "dateTime",
              "example": "2019/03/14T10:16:10.484"
            }
          }
        },
        "Requester": {
          "type": "object",
          "properties": {
            "QuestionaryAndAnswer": {
              "type": "object",
              "properties": {
                "resultDescription": {
                  "type": "string",
                  "example": "Usted ~MARIA CIFUENTES~ ha fallado el examen."
                },
                "validateInd": {
                  "type": "boolean",
                  "example": false
                }
              }
            }
          }
        }
      }
    }
  }
}